"<form action=\"procs2.php?id=".$sr_lg['sn']."&amp;lga=$sr_LGA\" method=\"post\"> \n <button type =\"submit\"  
				title=\"Delete this\" name=\"del".$sr_lg['sn']."\"". " value=\"".$sr_lg['sn']."\" >".
				"Delete</button> \n";
				$sr_res .= "<button type =\"submit\"  
				title=\"Update this\" name=\"upd".$sr_lg['sn']."\"". " value=\"".$sr_lg['sn']."\" >".
				"Update</button> \n".
				 "</form></td> \n";
				 
				 
				 $loggerin=mysql_query("INSERT INTO loglog (logger_id,time_in) VALUES ('$spec_id',now())");
		if($loggerin){
			
		} else {echo mysql_error();}
		
		
		<?php

 if (isset($closeView)){
	$viewCloser="style=\"visibility:hidden; position:fixed; width:860px; margin-left:100px;\"";
} 

if(isset($viewQuery)){
	$viewCloser="style=\"visibility:visible; position:fixed; width:860px; margin-left:100px; background:url(images/tran_bg.png); background-repeat:repeat;\"";
}
if (isset($viewTable)){
	$lgGet=mysql_query("SELECT * FROM $lg_view LIMIT 0 , 50",$conn);
		if(!$lgGet)
		{
			die ("wrong query".mysql_error());
		} else{
		$temp_sy="style=\"list-style:none; width:100px; float:left; background: #ccc;\"";
		$temp_sn ="<ul style=\"list-style:none; width: 30px; float:left; background: #333;\"> <li>S/N</li> \n";
		$temp_fn ="<ul $temp_sy> <li> First name </li> \n";
		$temp_mn ="<ul $temp_sy> <li> Middle name </li> \n";
		$temp_ln ="<ul $temp_sy> <li> Last name </li> \n";
		$temp_pn ="<ul $temp_sy> <li> Phone number </li> \n";
		$temp_sp ="<ul style=\"list-style:none; width:150px; float:left; background: #333;\"> <li> Specialization </li> \n";
		$temp_date="<ul style=\"list-style:none; width:160px;  float:left; background: #ccc;\"> <li> Reg Date </li> \n";
		while ($lgList=mysql_fetch_array($lgGet))
		{
		$temp_sn .="<li>".$lgList['sn']."</li> \n";
		$temp_fn .="<li>".$lgList['fname']."</li> \n";
		$temp_mn .="<li>".$lgList['mname']."</li> \n";
		$temp_ln .="<li>".$lgList['lname']."</li> \n";
		$temp_pn .="<li>".$lgList['phone']."</li> \n";
		$temp_sp .="<li>".$lgList['spec']."</li> \n";	
		$temp_date .="<li>".$lgList['DateEntered']."</li> \n";	
		}
	$temp_sn .="</ul>";	
	$temp_fn .="</ul>";
	$temp_mn .="</ul>";
	$temp_ln .="</ul>";
	$temp_pn .="</ul>";
	$temp_sp .="</ul>";
	$temp_date .="</ul>";
	$temp_val = $temp_sn."\n".$temp_fn."\n".$temp_mn."\n".$temp_ln."\n".$temp_pn."\n".$temp_sp."\n".$temp_date;
	$viewCloser="style=\"visibility:visible; position:fixed; width:1050px; margin-left:-10px; background:url(images/tran_bg.png); background-repeat:repeat\"";
	$lg_name_active="\"".$lg_view."\"";
		}
} else {$temp_val="The List goes Here";}
$lgTable.=$temp_val."</div>";

?>